{
  "circleci": {
    "pmbp": 1,
    "docker-build": "quay.io/manakai/webhacc-old",
    "merger": 1,
    "tests": [
      {"./plackup -p 5114 -t Twiggy::Prefork bin/server.psgi":
         {"background": true}},
      "sleep 10",
      "curl -f http://localhost:5114"
    ],
    "make_deploy_branches": ["master"]
  }
}
